Iacovacci Blog - Did Maryland make a crucial mistake against Illinois?
…
Rows: 15661 Columns: 331
── Column specification ────────────────────────────────────────────────────────
Delimiter: ","
chr  (65): pos_team, def_pos_team, play_type, play_text, penalty_detail, hom...
dbl (229): year, week, id_play, game_id, game_play_number, half_play_number,...
lgl  (37): penalty_1st_conv, middle_8, Goal_To_Go, Under_two, Under_three, G...

ℹ Use `spec()` to retrieve the full column specification for this data.
ℹ Specify the column types or set `show_col_types = FALSE` to quiet this message.

Code

third_and_six

# A tibble: 15,661 × 331
    year  week id_play   game_id game_play_number half_play_number
   <dbl> <dbl>   <dbl>     <dbl>            <dbl>            <dbl>
 1  2019     1 4.01e17 401110721               16               16
 2  2019     1 4.01e17 401110721               62               62
 3  2019     1 4.01e17 401110721               73               73
 4  2019     1 4.01e17 401110721               88                6
 5  2019     1 4.01e17 401110721              136               54
 6  2019     1 4.01e17 401110722               75               75
 7  2019     1 4.01e17 401110723               28               28
 8  2019     1 4.01e17 401110724               16               16
 9  2019     1 4.01e17 401110724               63               63
10  2019     1 4.01e17 401110725              101               20
# ℹ 15,651 more rows
# ℹ 325 more variables: drive_play_number <dbl>, pos_team <chr>,
#   def_pos_team <chr>, pos_team_score <dbl>, def_pos_team_score <dbl>,
#   half <dbl>, period <dbl>, clock.minutes <dbl>, clock.seconds <dbl>,
#   play_type <chr>, play_text <chr>, down <dbl>, distance <dbl>,
#   yards_to_goal <dbl>, yards_gained <dbl>, EPA <dbl>, ep_before <dbl>,
#   ep_after <dbl>, wpa <dbl>, wp_before <dbl>, wp_after <dbl>, …

Then we create a dataframe of all plays that are on third down with six yards left to the first down marker.

Code

#third_and_six <- pbp |> filter(down == 3) |> filter(distance == 6)

So in the past five years, what have teams done on Third and Six? To do this we can use summarize and group by each play type to see what teams call.

Code

third_and_six|> group_by(play_type) |> summarize(Count = n()) |> mutate(Percentage = (Count / sum(Count)) * 100)|> arrange(desc(Count)) 

# A tibble: 22 × 3
   play_type                  Count Percentage
   <chr>                      <int>      <dbl>
 1 Pass Reception              4676     29.9  
 2 Pass Incompletion           3866     24.7  
 3 Rush                        3173     20.3  
 4 Penalty                     1068      6.82 
 5 Timeout                      929      5.93 
 6 Sack                         800      5.11 
 7 Passing Touchdown            496      3.17 
 8 Interception Return          257      1.64 
 9 Rushing Touchdown            135      0.862
10 Fumble Recovery (Opponent)   101      0.645
# ℹ 12 more rows
…
# A tibble: 1 × 1
  `mean(yards_gained)`
                 <dbl>
1                 6.08

On average, they rush for the first down, which is pretty suprising considering the spread of the play usage. From here, lets see what teams run the most on third and six, and spolier alert, it’s teams that rely on the run the most.

Code

teamrushes <- rushes |> group_by(pos_team) |> summarize(Count = n(),Avg_Yards_Gained = mean(yards_gained)) |> arrange(desc(Count))
teamrushes

# A tibble: 280 × 3
   pos_team         Count Avg_Yards_Gained
   <chr>            <int>            <dbl>
 1 Navy                60             4.22
 2 Army                51             4.14
 3 Air Force           42             5.69
 4 Georgia Southern    35             5.89
 5 New Mexico          32             6.47
 6 Ole Miss            31             4.77
 7 Kent State          30             6.6 
 8 Baylor              29             9.03
 9 Georgia Tech        29             7.55
10 Louisiana           29             6.45
# ℹ 270 more rows
…
