Iacovacci Blog - The ACC and Big Ten’s wins with less than 100 Yards Rushing
…
Code

data <- sub100W |> group_by(Season,Conference) |> summarize(Wins = n()) |> arrange(Season)

`summarise()` has grouped output by 'Season'. You can override using the
`.groups` argument.

Code

# Correct filtering for multiple conferences
totaldata |> filter(Conference == "Big Ten Conference" | Conference == "Atlantic Coast Conference")

# A tibble: 28 × 3
# Groups:   Season [14]
   Season Conference                Games
    <int> <chr>                     <int>
 1   2011 Atlantic Coast Conference    45
 2   2011 Big Ten Conference           26
 3   2012 Atlantic Coast Conference    50
 4   2012 Big Ten Conference           27
 5   2013 Atlantic Coast Conference    41
 6   2013 Big Ten Conference           31
 7   2014 Atlantic Coast Conference    43
 8   2014 Big Ten Conference           38
 9   2015 Atlantic Coast Conference    34
10   2015 Big Ten Conference           42
# ℹ 18 more rows

Code

Winsdata <- data |> filter(Conference == "Big Ten Conference" | Conference == "Atlantic Coast Conference")
Winsdata

# A tibble: 28 × 3
# Groups:   Season [14]
   Season Conference                 Wins
    <int> <chr>                     <int>
 1   2011 Atlantic Coast Conference    16
 2   2011 Big Ten Conference            6
 3   2012 Atlantic Coast Conference    17
 4   2012 Big Ten Conference            3
 5   2013 Atlantic Coast Conference    11
 6   2013 Big Ten Conference            4
 7   2014 Atlantic Coast Conference    12
 8   2014 Big Ten Conference           10
 9   2015 Atlantic Coast Conference     8
10   2015 Big Ten Conference            6
# ℹ 18 more rows

Why was this the case? There are a couple of reasons, but the biggest one is that the Big Ten didn’t see many teams score wins from Sub-100 rushing yard performances in 2011, with only 5 in 2011. In the same year, the ACC saw five teams win twice after rushing under 100 yards, and nine total teams scoring at least one win. This happens in reverse in 2021, with eight teams in the Big Ten getting at least one win from Sub-100 yard rushing performances, with Purdue and Penn State combining for 10 Wins by themselves. The ACC only had five teams that were able to get one Sub-100 Yard rushing win.

Code

Teamsdata <- sub100W |> group_by(Season,TeamFull,Conference) |> filter(Conference == "Big Ten Conference"|Conference == "Atlantic Coast Conference")|> summarize(Wins = n())

`summarise()` has grouped output by 'Season', 'TeamFull'. You can override
using the `.groups` argument.

Code

Teamsdata

# A tibble: 173 × 4
# Groups:   Season, TeamFull [173]
   Season TeamFull                      Conference                 Wins
    <int> <chr>                         <chr>                     <int>
 1   2011 Boston College Eagles         Atlantic Coast Conference     1
 2   2011 Clemson Tigers                Atlantic Coast Conference     2
 3   2011 Duke Blue Devils              Atlantic Coast Conference     2
 4   2011 Florida State Seminoles       Atlantic Coast Conference     4
 5   2011 Illinois Fighting Illini      Big Ten Conference            1
 6   2011 Iowa Hawkeyes                 Big Ten Conference            1
 7   2011 Miami (FL) Hurricanes         Atlantic Coast Conference     2
 8   2011 Michigan State Spartans       Big Ten Conference            2
 9   2011 Michigan Wolverines           Big Ten Conference            1
10   2011 North Carolina State Wolfpack Atlantic Coast Conference     2
# ℹ 163 more rows
…
The real why in this case is the drastic change in offenses in the Big Ten towards more passing in the Late 2010s. In 2011, the Big Ten had close to 15 more attempts of rushes than passes. In 2024, this difference dropped to less than four. The ACC has always valued the pass, and even has been close to even in 2024, but production from passers hasn’t been as kind to get wins from lack of rushing.

Code

avgs <- logs |> filter(Conference == "Big Ten Conference" | Conference == "Atlantic Coast Conference") |> group_by(Season,Conference) |> summarize(AVGrushatt = mean(RushingAtt),AVGpassatt = mean(PassingAtt))

`summarise()` has grouped output by 'Season'. You can override using the
`.groups` argument.

Code

avgs

# A tibble: 28 × 4
# Groups:   Season [14]
   Season Conference                AVGrushatt AVGpassatt
    <int> <chr>                          <dbl>      <dbl>
 1   2011 Atlantic Coast Conference       37.3       31.2
 2   2011 Big Ten Conference              41.2       26.9
 3   2012 Atlantic Coast Conference       38.1       34.3
 4   2012 Big Ten Conference              40.2       30.4
 5   2013 Atlantic Coast Conference       39.3       31.6
 6   2013 Big Ten Conference              40.4       30.8
 7   2014 Atlantic Coast Conference       40.0       30.7
 8   2014 Big Ten Conference              40.1       30.1
 9   2015 Atlantic Coast Conference       39.1       30.3
10   2015 Big Ten Conference              38.7       32.3
# ℹ 18 more rows
…
